…
    ## [1] 82.603

``` r
range(gapminder$gdpPercap)
```

    ## [1]    241.1659 113523.1329

``` r
distinct(gapminder, country)
```

    ## # A tibble: 142 x 1
    ##        country
    ##         <fctr>
    ##  1 Afghanistan
    ##  2     Albania
    ##  3     Algeria
    ##  4      Angola
    ##  5   Argentina
    ##  6   Australia
    ##  7     Austria
    ##  8     Bahrain
    ##  9  Bangladesh
    ## 10     Belgium
    ## # ... with 132 more rows
…
Again, I find that the most useful function is summary(), as it provides the range (minimum, maximum), and summary statistics such as 1st quartile, mean and 3rd quartile (see above for data).

``` r
gapminder %>% 
  group_by(country) %>% 
  summarise_if(is.numeric, median)
```

    ## # A tibble: 142 x 5
    ##        country   year lifeExp        pop  gdpPercap
    ##         <fctr>  <dbl>   <dbl>      <dbl>      <dbl>
    ##  1 Afghanistan 1979.5 39.1460 13473708.5   803.4832
    ##  2     Albania 1979.5 69.6750  2644572.5  3253.2384
    ##  3     Algeria 1979.5 59.6910 18593278.5  4853.8559
    ##  4      Angola 1979.5 39.6945  6589529.5  3264.6288
    ##  5   Argentina 1979.5 69.2115 28162601.0  9068.7844
    ##  6   Australia 1979.5 74.1150 14629150.0 18905.6034
    ##  7     Austria 1979.5 72.6750  7571521.5 20673.2530
    ##  8     Bahrain 1979.5 67.3225   337688.5 18779.8016
    ##  9  Bangladesh 1979.5 48.4660 86751356.0   703.7638
    ## 10     Belgium 1979.5 73.3650  9839051.5 20048.9102
    ## # ... with 132 more rows
…
Overall, it seems that life expectancy has improved with years for the majority of countries, but I wonder what are the outliers at the bottom of the plot.

Let us see what is the minimum life expectancy for each year to find out.

``` r
t <- gapminder %>%
  group_by(country, year, lifeExp, pop, gdpPercap) %>%
  summarise_if(is.numeric, min) %>%
  arrange(lifeExp)
t
```

    ## # A tibble: 1,704 x 5
    ## # Groups:   country, year, lifeExp, pop [1,704]
    ##         country  year lifeExp     pop gdpPercap
    ##          <fctr> <int>   <dbl>   <int>     <dbl>
    ##  1       Rwanda  1992  23.599 7290203  737.0686
    ##  2  Afghanistan  1952  28.801 8425333  779.4453
    ##  3       Gambia  1952  30.000  284320  485.2307
    ##  4       Angola  1952  30.015 4232095 3520.6103
    ##  5 Sierra Leone  1952  30.331 2143249  879.7877
    ##  6  Afghanistan  1957  30.332 9240934  820.8530
    ##  7     Cambodia  1977  31.220 6978607  524.9722
    ##  8   Mozambique  1952  31.286 6446316  468.5260
    ##  9 Sierra Leone  1957  31.570 2295678 1004.4844
    ## 10 Burkina Faso  1952  31.975 4469979  543.2552
    ## # ... with 1,694 more rows
…
#### mutate() exploration

The cumulative gdp per country can be added to the my\_gap dataset using the mutate function.

``` r
my_gap %>%
  mutate(gdp = pop*gdpPercap)
```

    ## # A tibble: 1,704 x 7
    ##        country continent  year lifeExp      pop gdpPercap         gdp
    ##         <fctr>    <fctr> <int>   <dbl>    <int>     <dbl>       <dbl>
    ##  1 Afghanistan      Asia  1952  28.801  8425333  779.4453  6567086330
    ##  2 Afghanistan      Asia  1957  30.332  9240934  820.8530  7585448670
    ##  3 Afghanistan      Asia  1962  31.997 10267083  853.1007  8758855797
    ##  4 Afghanistan      Asia  1967  34.020 11537966  836.1971  9648014150
    ##  5 Afghanistan      Asia  1972  36.088 13079460  739.9811  9678553274
    ##  6 Afghanistan      Asia  1977  38.438 14880372  786.1134 11697659231
    ##  7 Afghanistan      Asia  1982  39.854 12881816  978.0114 12598563401
    ##  8 Afghanistan      Asia  1987  40.822 13867957  852.3959 11820990309
    ##  9 Afghanistan      Asia  1992  41.674 16317921  649.3414 10595901589
    ## 10 Afghanistan      Asia  1997  41.763 22227415  635.3414 14121995875
    ## # ... with 1,694 more rows
…
Considering only year 2000 and before, if we group by continent, year and country, we can use the summarize\_each() function to obtain the mean and median for the lifeExp and gdpPercap variables. Then, we can arrange according to the lifeExp\_mean variable to see which continents, years and countries had the lowest lifeExp\_mean values.

``` r
my_gap %>%
  filter(year <=2000) %>%
  group_by(continent, year, country) %>%
  summarize_each(funs(mean, median), lifeExp, gdpPercap) %>%
  arrange(lifeExp_mean)
```

    ## `summarise_each()` is deprecated.
    ## Use `summarise_all()`, `summarise_at()` or `summarise_if()` instead.
    ## To map `funs` over a selection of variables, use `summarise_at()`

    ## # A tibble: 1,420 x 7
    ## # Groups:   continent, year [50]
    ##    continent  year      country lifeExp_mean gdpPercap_mean lifeExp_median
    ##       <fctr> <int>       <fctr>        <dbl>          <dbl>          <dbl>
    ##  1    Africa  1992       Rwanda       23.599       737.0686         23.599
    ##  2      Asia  1952  Afghanistan       28.801       779.4453         28.801
    ##  3    Africa  1952       Gambia       30.000       485.2307         30.000
    ##  4    Africa  1952       Angola       30.015      3520.6103         30.015
    ##  5    Africa  1952 Sierra Leone       30.331       879.7877         30.331
    ##  6      Asia  1957  Afghanistan       30.332       820.8530         30.332
    ##  7      Asia  1977     Cambodia       31.220       524.9722         31.220
    ##  8    Africa  1952   Mozambique       31.286       468.5260         31.286
    ##  9    Africa  1957 Sierra Leone       31.570      1004.4844         31.570
    ## 10    Africa  1952 Burkina Faso       31.975       543.2552         31.975
    ## # ... with 1,410 more rows, and 1 more variables: gdpPercap_median <dbl>
…
